<?xml version="1.0" encoding="UTF-8"?>
<svg width="16px" height="16px" viewBox="0 0 16 16" version="1.1" xmlns="http://www.w3.org/2000/svg" xmlns:xlink="http://www.w3.org/1999/xlink">
    <!-- Generator: Sketch 52.6 (67491) - http://www.bohemiancoding.com/sketch -->
    <title>Icons/small/ic_cointoken_gold_small_dashboard</title>
    <desc>Created with Sketch.</desc>
    <defs>
        <linearGradient x1="50%" y1="0%" x2="50%" y2="186.157227%" id="linearGradient-1">
            <stop stop-color="#F2D658" offset="0%"></stop>
            <stop stop-color="#A56D28" offset="100%"></stop>
        </linearGradient>
    </defs>
    <g id="Icons/small/ic_cointoken_gold_small_dashboard" stroke="none" stroke-width="1" fill="none" fill-rule="evenodd">
        <path d="M1,14.8827459 C3.52693785,14.284036 5.5,11.4610556 5.5,8 C5.5,4.53894436 3.52693785,1.71596403 1,1.11725414 L1,14.8827459 Z" id="Oval-Copy" stroke="#151010" stroke-width="2" fill="#EDCF55" transform="translate(3.250000, 8.000000) scale(-1, -1) translate(-3.250000, -8.000000) "></path>
        <ellipse id="Oval" stroke="#151010" stroke-width="2" fill="url(#linearGradient-1)" cx="9.5" cy="8" rx="5.5" ry="7"></ellipse>
        <path d="M9.18,11.424 L9.18,10.616 C8.492,10.528 7.82,10.256 7.292,9.856 L7.916,8.944 C8.348,9.272 8.748,9.496 9.22,9.592 L9.22,8.32 C8.068,8.008 7.5,7.568 7.5,6.624 L7.5,6.608 C7.5,5.72 8.172,5.144 9.18,5.04 L9.18,4.576 L10.012,4.576 L10.012,5.056 C10.58,5.136 11.068,5.344 11.5,5.648 L10.964,6.584 C10.644,6.368 10.308,6.2 9.972,6.112 L9.972,7.32 C11.188,7.648 11.708,8.144 11.708,9.04 L11.708,9.056 C11.708,9.944 11.028,10.52 10.012,10.632 L10.012,11.424 L9.18,11.424 Z M9.22,7.12 L9.22,6.04 C8.836,6.088 8.668,6.28 8.668,6.536 L8.668,6.552 C8.668,6.8 8.78,6.96 9.22,7.12 Z M9.972,9.632 C10.348,9.576 10.54,9.408 10.54,9.12 L10.54,9.104 C10.54,8.832 10.404,8.672 9.972,8.512 L9.972,9.632 Z" id="$" fill="#000000"></path>
        <rect id="Rectangle" fill="#000000" x="6" y="0" width="4" height="2"></rect>
        <rect id="Rectangle-Copy" fill="#000000" x="6" y="14" width="4" height="2"></rect>
    </g>
</svg>