<?xml version="1.0" encoding="UTF-8"?>
<svg width="24px" height="24px" viewBox="0 0 24 24" version="1.1" xmlns="http://www.w3.org/2000/svg" xmlns:xlink="http://www.w3.org/1999/xlink">
    <!-- Generator: Sketch 63.1 (92452) - https://sketch.com -->
    <title>Icons/ic_edit_profile</title>
    <desc>Created with Sketch.</desc>
    <g id="Icons/ic_edit_profile" stroke="none" stroke-width="1" fill="none" fill-rule="evenodd">
        <path d="M15,13.5 C15.5522847,13.5 16,13.9477153 16,14.5 C16,15.0522847 15.5522847,15.5 15,15.5 L8,15.5 C5.23857625,15.5 3,17.7385763 3,20.5 L3,21 L10,21 C10.5522847,21 11,21.4477153 11,22 C11,22.5522847 10.5522847,23 10,23 L2,23 C1.44771525,23 1,22.5522847 1,22 L1,20.5 C1,16.6340068 4.13400675,13.5 8,13.5 L15,13.5 Z M12.4285715,1 C15.4266888,1 17.857143,3.43045425 17.857143,6.4285715 C17.857143,9.42668875 15.4266888,11.857143 12.4285715,11.857143 C9.43045425,11.857143 7,9.42668875 7,6.4285715 C7,3.43045425 9.43045425,1 12.4285715,1 Z M12.4285715,3 C10.5350237,3 9,4.53502375 9,6.4285715 C9,8.32211925 10.5350237,9.857143 12.4285715,9.857143 C14.3221193,9.857143 15.857143,8.32211925 15.857143,6.4285715 C15.857143,4.53502375 14.3221193,3 12.4285715,3 Z" id="Shape" fill="#151010"></path>
        <path d="M21.2836508,16.9409858 L15.8754467,22.3493005 C15.8098647,22.4148825 15.727692,22.4614079 15.6377142,22.4839024 L13.6363019,22.9842554 C13.2615247,23.0779497 12.9220502,22.7384752 13.0157445,22.363698 L13.5160976,20.3622858 C13.5385921,20.272308 13.5851175,20.1901353 13.6506995,20.1245533 L19.05831,14.7156451 L21.2836508,16.9409858 Z M22.5392397,13.4607602 C23.1535867,14.0751072 23.1535868,15.0711605 22.5392398,15.6855075 L22.0073388,16.2172978 L19.7819981,13.991957 L20.3144926,13.4607602 C20.9288395,12.8464133 21.9248928,12.8464133 22.5392397,13.4607602 Z" id="Shape" fill="#151010"></path>
    </g>
</svg>