<?xml version="1.0" encoding="UTF-8"?>
<svg width="24px" height="24px" viewBox="0 0 24 24" version="1.1" xmlns="http://www.w3.org/2000/svg" xmlns:xlink="http://www.w3.org/1999/xlink">
    <!-- Generator: Sketch 62 (91390) - https://sketch.com -->
    <title>Icons/ic_geoblock</title>
    <desc>Created with Sketch.</desc>
    <g id="Icons/ic_geoblock" stroke="none" stroke-width="1" fill="none" fill-rule="evenodd">
        <path d="M12,1.34375 C17.8852843,1.34375 22.65625,6.11471564 22.65625,12 C22.65625,17.8852843 17.8852843,22.65625 12,22.65625 C6.11471564,22.65625 1.34375,17.8852843 1.34375,12 C1.34375,6.11471564 6.11471564,1.34375 12,1.34375 Z M12,3.40625 C7.25380293,3.40625 3.40625,7.25380293 3.40625,12 C3.40625,14.0008478 4.09003753,15.8419884 5.23667672,17.3024861 L8.24875,14.28875 L8.31585883,14.4019682 C8.55326087,14.7983815 8.80923459,15.2062217 9.08127459,15.6230833 L9.38275,16.07675 L6.6975139,18.7633233 C8.15801156,19.9099625 9.99915222,20.59375 12,20.59375 C16.7461971,20.59375 20.59375,16.7461971 20.59375,12 C20.59375,9.99915222 19.9099625,8.15801156 18.7633233,6.6975139 L17.2410139,8.21992447 C17.0146945,7.53007904 16.6482437,6.90129241 16.1743357,6.36497451 L17.3024861,5.23667672 C15.8419884,4.09003753 14.0008478,3.40625 12,3.40625 Z" id="Combined-Shape" fill="#151010" fill-rule="nonzero"></path>
        <path d="M12,5 C9.23857143,5 7,7.17003846 7,9.84615385 C7,12.5226154 12,18.8461538 12,18.8461538 C12,18.8461538 17,12.5226154 17,9.84615385 C17,7.17003846 14.7614286,5 12,5 Z M12,12.2692308 C10.6192857,12.2692308 9.5,11.1843846 9.5,9.84615385 C9.5,8.50792308 10.6192857,7.42307692 12,7.42307692 C13.3807143,7.42307692 14.5,8.50792308 14.5,9.84615385 C14.5,11.1843846 13.3807143,12.2692308 12,12.2692308 Z" id="Shape" fill="#151010" fill-rule="nonzero"></path>
    </g>
</svg>