<?xml version="1.0" encoding="UTF-8"?>
<svg width="16px" height="16px" viewBox="0 0 16 16" version="1.1" xmlns="http://www.w3.org/2000/svg" xmlns:xlink="http://www.w3.org/1999/xlink">
    <!-- Generator: Sketch 52.6 (67491) - http://www.bohemiancoding.com/sketch -->
    <title>Icons/small/ic_premium_small</title>
    <desc>Created with Sketch.</desc>
    <g id="Icons/small/ic_premium_small" stroke="none" stroke-width="1" fill="none" fill-rule="evenodd">
        <g id="outline" fill="#151010">
            <path d="M8,13.1284625 L14.1098161,5.79668321 L12.4364745,2.45 L3.56352549,2.45 L1.89018389,5.79668321 L8,13.1284625 Z M7.42383404,14.7801383 L0.42383404,6.3801383 C0.233076133,6.15122881 0.195921862,5.83110529 0.329179607,5.5645898 L2.42917961,1.3645898 C2.55622362,1.11050178 2.81592096,0.95 3.1,0.95 L12.9,0.95 C13.184079,0.95 13.4437764,1.11050178 13.5708204,1.3645898 L15.6708204,5.5645898 C15.8040781,5.83110529 15.7669239,6.15122881 15.576166,6.3801383 L8.57616596,14.7801383 C8.27631963,15.1399539 7.72368037,15.1399539 7.42383404,14.7801383 Z" id="Path-3"></path>
            <path d="M5.71923803,1.56263944 C5.78056682,1.34798866 5.97675982,1.2 6.2,1.2 L9.8,1.2 C10.0232402,1.2 10.2194332,1.34798866 10.280762,1.56263944 L11.480762,5.76263944 C11.5094415,5.86301762 11.5059828,5.96985516 11.470871,6.0681682 L8.47087096,14.4681682 C8.31285581,14.9106106 7.68714419,14.9106106 7.52912904,14.4681682 L4.52912904,6.0681682 C4.49401724,5.96985516 4.49055854,5.86301762 4.51923803,5.76263944 L5.71923803,1.56263944 Z M6.57715071,2.2 L5.52486259,5.88300839 L8,12.8133931 L10.4751374,5.88300839 L9.42284929,2.2 L6.57715071,2.2 Z" id="Path-5"></path>
            <path d="M15,5.4 C15.2761424,5.4 15.5,5.62385763 15.5,5.9 C15.5,6.17614237 15.2761424,6.4 15,6.4 L1,6.4 C0.723857625,6.4 0.5,6.17614237 0.5,5.9 C0.5,5.62385763 0.723857625,5.4 1,5.4 L15,5.4 Z" id="Path-4"></path>
        </g>
    </g>
</svg>