<?xml version="1.0" encoding="UTF-8"?>
<svg width="16px" height="16px" viewBox="0 0 16 16" version="1.1" xmlns="http://www.w3.org/2000/svg" xmlns:xlink="http://www.w3.org/1999/xlink">
    <!-- Generator: Sketch 52.6 (67491) - http://www.bohemiancoding.com/sketch -->
    <title>Icons/small/ic_video_small</title>
    <desc>Created with Sketch.</desc>
    <g id="Icons/small/ic_video_small" stroke="none" stroke-width="1" fill="none" fill-rule="evenodd">
        <g id="outline" transform="translate(0.000000, 2.000000)" fill="#151010">
            <path d="M3,1.75 C2.30964406,1.75 1.75,2.30964406 1.75,3 L1.75,8.8 C1.75,9.49035594 2.30964406,10.05 3,10.05 L9.5,10.05 C10.1903559,10.05 10.75,9.49035594 10.75,8.8 L10.75,3 C10.75,2.30964406 10.1903559,1.75 9.5,1.75 L3,1.75 Z M3,0.25 L9.5,0.25 C11.0187831,0.25 12.25,1.48121694 12.25,3 L12.25,8.8 C12.25,10.3187831 11.0187831,11.55 9.5,11.55 L3,11.55 C1.48121694,11.55 0.25,10.3187831 0.25,8.8 L0.25,3 C0.25,1.48121694 1.48121694,0.25 3,0.25 Z" id="Rectangle"></path>
            <path d="M14.721457,1.70364248 C15.2141053,1.50658316 15.75,1.86940155 15.75,2.4 L15.75,9.4 C15.75,9.93059845 15.2141053,10.2934168 14.721457,10.0963575 L11.221457,8.69635752 C10.9367132,8.58246 10.75,8.30667844 10.75,8 L10.75,3.8 C10.75,3.49332156 10.9367132,3.21754 11.221457,3.10364248 L14.721457,1.70364248 Z M12.25,4.30777472 L12.25,7.49222528 L14.25,8.29222528 L14.25,3.50777472 L12.25,4.30777472 Z" id="Path-2"></path>
        </g>
    </g>
</svg>