<?xml version="1.0" encoding="UTF-8"?>
<svg width="24px" height="24px" viewBox="0 0 24 24" version="1.1" xmlns="http://www.w3.org/2000/svg" xmlns:xlink="http://www.w3.org/1999/xlink">
    <!-- Generator: Sketch 52.6 (67491) - http://www.bohemiancoding.com/sketch -->
    <title>Icons/ic_cointoken_payments</title>
    <desc>Created with Sketch.</desc>
    <g id="Icons/ic_cointoken_payments" stroke="none" stroke-width="1" fill="none" fill-rule="evenodd">
        <path d="M1,22 C5.97056275,22 10,17.5228475 10,12 C10,6.4771525 5.97056275,2 1,2" id="Oval-Copy" stroke="#151010" stroke-width="2" stroke-linecap="round" stroke-linejoin="round" transform="translate(5.500000, 12.000000) scale(-1, 1) translate(-5.500000, -12.000000) "></path>
        <ellipse id="Oval" stroke="#151010" stroke-width="2" stroke-linecap="round" stroke-linejoin="round" cx="14" cy="12" rx="9" ry="10"></ellipse>
        <path d="M10,22 L14,22" id="Path-6-Copy" stroke="#151010" stroke-width="2" stroke-linecap="round"></path>
        <path d="M10,2 L14,2" id="Path-6" stroke="#151010" stroke-width="2" stroke-linecap="round"></path>
        <path d="M13.4746377,17.6213768 L13.4746377,16.294837 C12.3451087,16.1503623 11.2418478,15.7038043 10.375,15.0471014 L11.3994565,13.5498188 C12.1086957,14.0883152 12.7653986,14.4560688 13.540308,14.6136775 L13.540308,12.5253623 C11.6490036,12.0131341 10.7164855,11.2907609 10.7164855,9.74094203 L10.7164855,9.71467391 C10.7164855,8.25679348 11.8197464,7.3111413 13.4746377,7.14039855 L13.4746377,6.37862319 L14.8405797,6.37862319 L14.8405797,7.16666667 C15.7730978,7.29800725 16.5742754,7.63949275 17.2835145,8.13858696 L16.4035326,9.67527174 C15.8781703,9.32065217 15.3265399,9.04483696 14.7749094,8.90036232 L14.7749094,10.8836051 C16.7712862,11.4221014 17.625,12.236413 17.625,13.7074275 L17.625,13.7336957 C17.625,15.1915761 16.5086051,16.1372283 14.8405797,16.3211051 L14.8405797,17.6213768 L13.4746377,17.6213768 Z M13.540308,10.5552536 L13.540308,8.7821558 C12.9098732,8.86096014 12.634058,9.17617754 12.634058,9.59646739 L12.634058,9.62273551 C12.634058,10.0298913 12.8179348,10.2925725 13.540308,10.5552536 Z M14.7749094,14.6793478 C15.3922101,14.5874094 15.7074275,14.3115942 15.7074275,13.8387681 L15.7074275,13.8125 C15.7074275,13.365942 15.4841486,13.1032609 14.7749094,12.8405797 L14.7749094,14.6793478 Z" id="$" fill="#151010"></path>
    </g>
</svg>