<?xml version="1.0" encoding="UTF-8"?>
<svg width="24px" height="24px" viewBox="0 0 24 24" version="1.1" xmlns="http://www.w3.org/2000/svg" xmlns:xlink="http://www.w3.org/1999/xlink">
    <!-- Generator: Sketch 52.6 (67491) - http://www.bohemiancoding.com/sketch -->
    <title>Icons/ic_gear_settings</title>
    <desc>Created with Sketch.</desc>
    <g id="Icons/ic_gear_settings" stroke="none" stroke-width="1" fill="none" fill-rule="evenodd">
        <path d="M21.9888517,12.0334821 C21.9953864,11.6605876 21.7449146,11.3320388 21.3836075,11.2395715 L19.8278366,10.8414118 C19.3346319,10.7151887 18.9417846,10.34287 18.7892977,9.85714286 C18.7447043,9.67857054 18.6852475,9.50000089 18.6109253,9.32142857 C18.5366031,9.14285625 18.4474178,8.95684621 18.3433668,8.76339286 C18.1206636,8.31748931 18.136976,7.78951168 18.3867815,7.35820681 L19.1969569,5.95938845 C19.3899654,5.62614717 19.3322738,5.20442798 19.0568562,4.93526786 C18.7811693,4.66584459 18.3581963,4.61688781 18.0282544,4.8162129 L16.7108333,5.61209568 C16.2705046,5.87810785 15.7236636,5.89651469 15.2664437,5.66071429 C15.0880705,5.57142812 14.9096999,5.4858635 14.7313266,5.40401786 C14.5529534,5.32217221 14.3671507,5.25892879 14.173913,5.21428571 C13.6882734,5.04759485 13.3223646,4.64304628 13.2050992,4.1431657 L12.852562,2.6403641 C12.7645588,2.26522247 12.4299187,2 12.0445931,2 C11.6562769,2 11.3160264,2.25995814 11.2139597,2.63462048 L10.7936181,4.17759301 C10.6629309,4.65731429 10.2990988,5.03876025 9.82608696,5.19196429 C9.63284928,5.25148839 9.43961449,5.32217221 9.24637681,5.40401786 C9.05313913,5.4858635 8.85990435,5.57886853 8.66666667,5.68303571 C8.21020709,5.918444 7.66368905,5.89701898 7.22705933,5.62659912 L5.86315357,4.7818852 C5.53318547,4.57752457 5.1059549,4.62718578 4.83166109,4.90178571 C4.55520592,5.17854943 4.4981563,5.60608855 4.69236986,5.94565698 L5.55997635,7.46260452 C5.80100639,7.88402821 5.81221068,8.39884609 5.58974359,8.83035714 C5.50055697,9.02381049 5.42251984,9.20238013 5.35562988,9.36607143 C5.28873991,9.52976272 5.23299911,9.69345156 5.1884058,9.85714286 C5.0362031,10.3419647 4.64121619,10.7116691 4.1473998,10.8315158 L2.63990628,11.1973766 C2.26439635,11.288511 2,11.6247501 2,12.0111607 C2,12.3997989 2.26045091,12.7402195 2.635561,12.8418664 L4.19562811,13.2646115 C4.67582053,13.3947335 5.05771316,13.7587394 5.21070234,14.2321429 C5.25529565,14.3809531 5.31103645,14.5334814 5.37792642,14.6897321 C5.44481639,14.8459829 5.52285351,15.0059516 5.61204013,15.1696429 C5.8213692,15.6027391 5.80374204,16.1111887 5.56492203,16.5287483 L4.68847317,18.0611561 C4.49705518,18.3958367 4.55591876,18.8175761 4.83166109,19.0870536 C5.10705445,19.35619 5.5299842,19.4040888 5.85859221,19.2033584 L7.2243896,18.3690604 C7.66308261,18.1010846 8.20978313,18.0813374 8.66666667,18.3169643 C8.85990435,18.4211315 9.05313913,18.5141365 9.24637681,18.5959821 C9.43961449,18.6778278 9.63284928,18.7485116 9.82608696,18.8080357 C10.2990988,18.9612397 10.6629309,19.3426857 10.7936181,19.822407 L11.2168899,21.3761358 C11.3172267,21.7444479 11.6517102,22 12.0334448,22 C12.4134342,22 12.7446393,21.7413329 12.8367035,21.372665 L13.2159319,19.8540584 C13.3405912,19.3548646 13.7095554,18.9527534 14.1962096,18.7857143 C14.3745828,18.7261902 14.5529534,18.6592266 14.7313266,18.5848214 C14.9096999,18.5104163 15.0880705,18.4285719 15.2664437,18.3392857 C15.722801,18.1039302 16.2692741,18.1257581 16.7054057,18.3967626 L18.0258802,19.2172822 C18.3554373,19.4220632 18.7826526,19.3727239 19.0568562,19.0982143 C19.3332043,18.8215578 19.3898572,18.3940255 19.1951018,18.0549423 L18.3842767,16.6432379 C18.1359063,16.2108074 18.1205483,15.6827415 18.3433668,15.2366071 C18.4325534,15.0729158 18.5105905,14.9055068 18.5774805,14.734375 C18.6443705,14.5632432 18.7075434,14.3883938 18.7670011,14.2098214 C18.9201844,13.7497587 19.2935881,13.3969812 19.7616041,13.2701588 L21.3635926,12.8360539 C21.7273851,12.7374738 21.9822476,12.4103368 21.9888517,12.0334821 Z M20.4402417,15.4624689 C20.3823203,15.6106555 20.3187736,15.7567161 20.2565541,15.8873723 L20.9293946,17.0588357 C21.5739555,18.1810622 21.3864573,19.5960191 20.4718583,20.5116389 C19.5405674,21.4439692 18.0895958,21.6115426 16.9703051,20.9160351 L15.9031236,20.2529073 C15.7695434,20.315385 15.6355979,20.3746458 15.5012887,20.4306704 C15.3644483,20.4877509 15.2272483,20.5414645 15.0934385,20.5905238 L14.7771157,21.8572272 C14.4626541,23.1164773 13.3313651,24 12.0334448,24 C10.7495978,24 9.62466536,23.1405292 9.28721344,21.9018245 L8.93818658,20.620631 C8.78023786,20.5649576 8.62295364,20.5039298 8.46635933,20.4376045 C8.31230246,20.3723538 8.15895822,20.3019952 8.01375466,20.2304961 L6.90116834,20.91012 C5.79164081,21.5878754 4.36364095,21.4261476 3.43378989,20.5174228 C2.50670396,19.6114003 2.30879604,18.1934508 2.95237123,17.0682059 L3.68287154,15.7909787 C3.63190843,15.6860139 3.58404665,15.5813108 3.53931845,15.4768285 C3.48748983,15.3557601 3.43984259,15.234928 3.39846163,15.1207252 L2.11246846,14.7722483 C0.865682965,14.4343959 2.9521146e-15,13.3029108 0,12.0111607 C-3.00943594e-15,10.7018765 0.895860411,9.56258943 2.16820957,9.2537969 L3.37222988,8.96158743 C3.41250843,8.84365116 3.45652786,8.72628946 3.50424021,8.6095291 C3.55460208,8.48628491 3.60954117,8.35769717 3.67926658,8.20271831 L2.95626791,6.93860715 C2.31434533,5.81625168 2.50290805,4.40313189 3.41665901,3.48836111 C4.34725877,2.55672274 5.79672886,2.38823658 6.91621544,3.08157327 L8.02134578,3.76601863 C8.16901502,3.69339633 8.31735384,3.62550669 8.46635933,3.56239555 C8.62516683,3.49513277 8.78468388,3.43331841 8.93825851,3.37910491 L9.28428318,2.10893177 C9.62346505,0.863876905 10.7541645,2.95153995e-15 12.0445931,0 C13.3585228,-2.27146345e-15 14.499619,0.904387577 14.799703,2.18359078 L15.0840188,3.39557665 C15.2476896,3.45055337 15.4082473,3.51412984 15.5654044,3.58624057 C15.6821738,3.63981961 15.7988568,3.69478622 15.9197969,3.75334529 L16.9940795,3.1043478 C18.1041425,2.43373456 19.527201,2.59844571 20.4547274,3.50489863 C21.3843866,4.41343602 21.5791219,5.83692937 20.9276307,6.96176967 L20.2590925,8.11604259 C20.3312328,8.26311968 20.3973524,8.40869316 20.4573835,8.55292868 C20.516025,8.6938254 20.5688779,8.83574408 20.6158377,8.97862192 L21.8794749,9.30201753 C23.1385069,9.62423457 24.011316,10.7691151 23.9885447,12.0685254 C23.9663444,13.3353529 23.1096034,14.4350509 21.8866852,14.7664357 L20.566978,15.1240484 C20.5261258,15.2380117 20.4838817,15.3508199 20.4402417,15.4624689 Z" id="settings" fill="#151010" fill-rule="nonzero"></path>
        <circle id="Oval" stroke="#151010" stroke-width="2" cx="12" cy="12" r="4"></circle>
    </g>
</svg>