<?xml version="1.0" encoding="UTF-8"?>
<svg width="16px" height="16px" viewBox="0 0 16 16" version="1.1" xmlns="http://www.w3.org/2000/svg" xmlns:xlink="http://www.w3.org/1999/xlink">
    <!-- Generator: Sketch 52.6 (67491) - http://www.bohemiancoding.com/sketch -->
    <title>Icons/small/ic_subscription_earnings_small</title>
    <desc>Created with Sketch.</desc>
    <g id="Icons/small/ic_subscription_earnings_small" stroke="none" stroke-width="1" fill="none" fill-rule="evenodd">
        <g id="outline">
            <path d="M8,7.75 C5.92893219,7.75 4.25,6.07106781 4.25,4 C4.25,1.92893219 5.92893219,0.25 8,0.25 C10.0710678,0.25 11.75,1.92893219 11.75,4 C11.75,6.07106781 10.0710678,7.75 8,7.75 Z M8,6.25 C9.24264069,6.25 10.25,5.24264069 10.25,4 C10.25,2.75735931 9.24264069,1.75 8,1.75 C6.75735931,1.75 5.75,2.75735931 5.75,4 C5.75,5.24264069 6.75735931,6.25 8,6.25 Z" id="Oval" fill="#151010"></path>
            <path d="M1.75,14.2978516 L7,14.2978516 C7.41421356,14.2978516 7.75,14.633638 7.75,15.0478516 C7.75,15.4620651 7.41421356,15.7978516 7,15.7978516 L1,15.7978516 C0.585786438,15.7978516 0.25,15.4620651 0.25,15.0478516 L0.25,14 C0.25,11.3766474 2.37664744,9.25 5,9.25 L6,9.25 C6.41421356,9.25 6.75,9.58578644 6.75,10 C6.75,10.4142136 6.41421356,10.75 6,10.75 L5,10.75 C3.20507456,10.75 1.75,12.2050746 1.75,14 L1.75,14.2978516 Z" id="Line-2" fill="#151010"></path>
            <path d="M11.5,15.892965 C11.2592403,15.9629608 11.0081346,16 10.75,16 C8.95507456,16 7.5,14.209139 7.5,12 C7.5,9.790861 8.95507456,8 10.75,8 C11.0081346,8 11.2592403,8.0370392 11.5,8.10703498 C11.7407597,8.0370392 11.9918654,8 12.25,8 C14.0449254,8 15.5,9.790861 15.5,12 C15.5,14.209139 14.0449254,16 12.25,16 C11.9918654,16 11.7407597,15.9629608 11.5,15.892965 Z" id="fill" fill="#D6B147"></path>
            <path d="M10.5,15.9883417 C8.82188807,15.8312263 7.5,14.1056092 7.5,12 C7.5,9.89439085 8.82188807,8.16877369 10.5,8.01165835 L10.5,8 L12.5,8 L12.5,8.01165835 C14.1781119,8.16877369 15.5,9.89439085 15.5,12 C15.5,14.1056092 14.1781119,15.8312263 12.5,15.9883417 L12.5,16 L10.5,16 L10.5,15.9883417 Z M10.2938331,8.80542223 C9.15568432,9.0844002 8.25,10.3855276 8.25,12 C8.25,13.6144724 9.15568432,14.9155998 10.2938331,15.1945778 C9.50795132,14.4644701 9,13.3052433 9,12 C9,10.6947567 9.50795132,9.53552993 10.2938331,8.80542223 Z M12.25,15.25 C13.5923924,15.25 14.75,13.8252522 14.75,12 C14.75,10.1747478 13.5923924,8.75 12.25,8.75 C10.9076076,8.75 9.75,10.1747478 9.75,12 C9.75,13.8252522 10.9076076,15.25 12.25,15.25 Z" id="Combined-Shape" fill="#151010"></path>
        </g>
    </g>
</svg>