<?xml version="1.0" encoding="UTF-8"?>
<svg width="16px" height="16px" viewBox="0 0 16 16" version="1.1" xmlns="http://www.w3.org/2000/svg" xmlns:xlink="http://www.w3.org/1999/xlink">
    <!-- Generator: Sketch 52.6 (67491) - http://www.bohemiancoding.com/sketch -->
    <title>Icons/small/ic_total_earnings_small</title>
    <desc>Created with Sketch.</desc>
    <g id="Icons/small/ic_total_earnings_small" stroke="none" stroke-width="1" fill="none" fill-rule="evenodd">
        <g id="outline">
            <path d="M11.9143484,3.03147871 C12.1731056,2.70803226 12.6450748,2.65559123 12.9685213,2.91434839 C13.2919677,3.17310555 13.3444088,3.64507483 13.0856516,3.96852129 L11.0856516,6.46852129 C10.9702155,6.61281639 10.8055729,6.7094165 10.6232992,6.73979544 L8.02781444,7.17237624 L6.68935877,10.2954395 C6.64074449,10.4088728 6.56488969,10.5085569 6.46852129,10.5856516 L3.96852129,12.5856516 C3.64507483,12.8444088 3.17310555,12.7919677 2.91434839,12.4685213 C2.65559123,12.1450748 2.70803226,11.6731056 3.03147871,11.4143484 L5.38469045,9.531779 L6.81064123,6.20456053 C6.91130463,5.96967925 7.12463448,5.8022156 7.37670076,5.76020456 L10.0936242,5.30738399 L11.9143484,3.03147871 Z" id="Line" fill="#151010"></path>
            <path d="M9.82842712,1.75 C9.41421356,1.75 9.07842712,1.41421356 9.07842712,1 C9.07842712,0.585786438 9.41421356,0.25 9.82842712,0.25 L13,0.25 C14.5187831,0.25 15.75,1.48121694 15.75,3 L15.75,13 C15.75,14.5187831 14.5187831,15.75 13,15.75 L3,15.75 C1.48121694,15.75 0.25,14.5187831 0.25,13 L0.25,9 C0.25,8.58578644 0.585786438,8.25 1,8.25 C1.41421356,8.25 1.75,8.58578644 1.75,9 L1.75,13 C1.75,13.6903559 2.30964406,14.25 3,14.25 L13,14.25 C13.6903559,14.25 14.25,13.6903559 14.25,13 L14.25,3 C14.25,2.30964406 13.6903559,1.75 13,1.75 L9.82842712,1.75 Z" id="Rectangle-17" fill="#151010" transform="translate(8.000000, 8.000000) rotate(180.000000) translate(-8.000000, -8.000000) "></path>
            <path d="M11.5,15.892965 C11.2592403,15.9629608 11.0081346,16 10.75,16 C8.95507456,16 7.5,14.209139 7.5,12 C7.5,9.790861 8.95507456,8 10.75,8 C11.0081346,8 11.2592403,8.0370392 11.5,8.10703498 C11.7407597,8.0370392 11.9918654,8 12.25,8 C14.0449254,8 15.5,9.790861 15.5,12 C15.5,14.209139 14.0449254,16 12.25,16 C11.9918654,16 11.7407597,15.9629608 11.5,15.892965 Z" id="fill" fill="#D6B147"></path>
            <path d="M10.5,15.9883417 C8.82188807,15.8312263 7.5,14.1056092 7.5,12 C7.5,9.89439085 8.82188807,8.16877369 10.5,8.01165835 L10.5,8 L12.5,8 L12.5,8.01165835 C14.1781119,8.16877369 15.5,9.89439085 15.5,12 C15.5,14.1056092 14.1781119,15.8312263 12.5,15.9883417 L12.5,16 L10.5,16 L10.5,15.9883417 Z M10.2938331,8.80542223 C9.15568432,9.0844002 8.25,10.3855276 8.25,12 C8.25,13.6144724 9.15568432,14.9155998 10.2938331,15.1945778 C9.50795132,14.4644701 9,13.3052433 9,12 C9,10.6947567 9.50795132,9.53552993 10.2938331,8.80542223 Z M12.25,15.25 C13.5923924,15.25 14.75,13.8252522 14.75,12 C14.75,10.1747478 13.5923924,8.75 12.25,8.75 C10.9076076,8.75 9.75,10.1747478 9.75,12 C9.75,13.8252522 10.9076076,15.25 12.25,15.25 Z" id="Combined-Shape" fill="#151010"></path>
        </g>
    </g>
</svg>