<?xml version="1.0" encoding="UTF-8"?>
<svg width="24px" height="24px" viewBox="0 0 24 24" version="1.1" xmlns="http://www.w3.org/2000/svg" xmlns:xlink="http://www.w3.org/1999/xlink">
    <!-- Generator: Sketch 52.6 (67491) - http://www.bohemiancoding.com/sketch -->
    <title>Icons/ic_document</title>
    <desc>Created with Sketch.</desc>
    <g id="Icons/ic_document" stroke="none" stroke-width="1" fill="none" fill-rule="evenodd" stroke-linecap="round" stroke-linejoin="round">
        <g id="paperclip" transform="translate(3.000000, 2.000000)" stroke="#151010" stroke-width="2">
            <path d="M18.468,9.57142857 L9.7375,18.3238095 C7.51027368,20.5566179 3.89922632,20.5566179 1.672,18.3238095 C-0.555226325,16.0910012 -0.555226325,12.4709036 1.672,10.2380952 L10.4025,1.48571429 C11.8873176,-0.00282457358 14.2946824,-0.0028245556 15.7795,1.48571433 C17.2643175,2.97425321 17.2643175,5.38765157 15.7795,6.87619048 L7.0395,15.6285714 C6.29709123,16.3728409 5.09340877,16.3728409 4.351,15.6285714 C3.60859123,14.884302 3.60859123,13.6776028 4.351,12.9333333 L12.4165,4.85714286" id="Path"></path>
        </g>
    </g>
</svg>