<svg xmlns="http://www.w3.org/2000/svg" width="78" height="78" viewBox="0 0 78 78">
  <path id="Shape_1" data-name="Shape 1" d="M209,4639.291A10.711,10.711,0,1,1,219.71,4650,10.723,10.723,0,0,1,209,4639.291Zm3.121,0a7.591,7.591,0,1,0,7.59-7.591A7.6,7.6,0,0,0,212.12,4639.291Zm71.76,0a64.243,64.243,0,0,0-64.17-64.171V4572A67.366,67.366,0,0,1,287,4639.291Zm-14.144,0a50.082,50.082,0,0,0-50.026-50.025v-3.12a53.2,53.2,0,0,1,53.145,53.145Zm-14.145,0a35.922,35.922,0,0,0-35.88-35.883v-3.119a39.047,39.047,0,0,1,39,39Zm-14.144,0a21.762,21.762,0,0,0-21.736-21.738v-3.119a24.883,24.883,0,0,1,24.856,24.857Z" transform="translate(-209 -4572)"/>
</svg>
