<?xml version="1.0" encoding="UTF-8"?>
<svg width="260px" height="200px" viewBox="0 0 260 200" version="1.1" xmlns="http://www.w3.org/2000/svg" xmlns:xlink="http://www.w3.org/1999/xlink">
    <!-- Generator: Sketch 64 (93537) - https://sketch.com -->
    <title>img_photo_id</title>
    <desc>Created with Sketch.</desc>
    <defs>
        <rect id="path-1" x="0" y="0" width="260" height="200"></rect>
        <mask id="mask-2" maskContentUnits="userSpaceOnUse" maskUnits="objectBoundingBox" x="0" y="0" width="260" height="200" fill="white">
            <use xlink:href="#path-1"></use>
        </mask>
        <polygon id="path-3" points="0 0 48 0 48 73 0 73"></polygon>
    </defs>
    <g id="Page-1" stroke="none" stroke-width="1" fill="none" fill-rule="evenodd">
        <g id="Mobile_sign_up_steps_verify" transform="translate(-58.000000, -208.000000)">
            <g id="img_photo_id" transform="translate(58.000000, 208.000000)">
                <use id="Rectangle" stroke="#E4E4E4" mask="url(#mask-2)" stroke-width="2" stroke-dasharray="10,10" xlink:href="#path-1"></use>
                <g id="license/female" transform="translate(38.000000, 42.000000)">
                    <g id="Group-5">
                        <path d="M7.6916556,-3.10752092e-16 L176.308344,3.10752092e-16 C178.982901,-1.80555915e-16 179.952759,0.278476833 180.930537,0.801398111 C181.908315,1.32431939 182.675681,2.09168511 183.198602,3.06946289 C183.721523,4.04724067 184,5.01709938 184,7.6916556 L184,108.308344 C184,110.982901 183.721523,111.952759 183.198602,112.930537 C182.675681,113.908315 181.908315,114.675681 180.930537,115.198602 C179.952759,115.721523 178.982901,116 176.308344,116 L7.6916556,116 C5.01709938,116 4.04724067,115.721523 3.06946289,115.198602 C2.09168511,114.675681 1.32431939,113.908315 0.801398111,112.930537 C0.278476833,111.952759 1.2037061e-16,110.982901 -2.07168062e-16,108.308344 L2.07168062e-16,7.6916556 C-1.2037061e-16,5.01709938 0.278476833,4.04724067 0.801398111,3.06946289 C1.32431939,2.09168511 2.09168511,1.32431939 3.06946289,0.801398111 C4.04724067,0.278476833 5.01709938,1.80555915e-16 7.6916556,-3.10752092e-16 Z" id="Rectangle" fill="#F0F0F0"></path>
                        <g id="thumbnail/1" transform="translate(8.000000, 22.000000)">
                            <g>
                                <mask id="mask-4" fill="white">
                                    <use xlink:href="#path-3"></use>
                                </mask>
                                <use id="mask" fill="#92E3DA" xlink:href="#path-3"></use>
                                <g id="Group" mask="url(#mask-4)">
                                    <g transform="translate(-8.000000, 3.000000)">
                                        <path d="M29.588,7.97111246 C38.9994348,6.73780812 45.3236522,11.6817646 44.9946957,23.2817212 C44.5493043,39.0575038 38.7716522,41.2878516 32.1427826,41.4670255 C23.3983043,41.7032864 19.442913,34.2644603 18.9217826,26.6532429 C18.3045652,17.6351994 22.1503043,7.98919942 29.588,7.97111246" id="Fill-4" fill="#290C0E"></path>
                                        <path d="M24.5281174,36.0912429 C24.5281174,36.0912429 26.0525087,46.709982 24.2788565,49.6915038 C21.3527261,53.4117646 16.4895957,54.4777646 9.55607391,57.8526777 C24.5281174,92.7548516 44.2146391,84.8644168 54.8548565,58.2873299 C44.1106391,52.1925907 43.5612478,52.5899386 40.8781609,49.7197646 C39.4012478,48.1388516 38.8535522,44.1128081 38.6308565,35.4847646 L24.5281174,36.0912429 Z" id="Fill-6" fill="#FFCCA9"></path>
                                        <path d="M24.7030522,37.4835994 L38.7741391,39.4669472 C39.0640957,45.4005994 39.6502261,48.4058603 40.8778783,49.7194255 C40.9123565,49.7555994 40.9457043,49.7917733 40.9796174,49.8279472 C31.2742696,52.8772951 26.5281391,46.4400342 25.0286174,41.0947733 C24.9381826,39.6839907 24.8087478,38.3986864 24.7030522,37.4835994" id="Fill-8" fill="#F4A56E"></path>
                                        <path d="M20.2657565,25.7881741 C19.203713,25.7847864 18.5689739,28.1773516 19.1686696,30.4913516 C19.7678,32.8042212 20.0961913,34.8825255 21.1582348,34.8853573 C22.2214087,34.8887429 21.751713,33.3880907 21.7590609,30.6869168 C21.7658435,27.9863081 21.3289304,25.791569 20.2657565,25.7881741" id="Fill-10" fill="#FFCCA9"></path>
                                        <path d="M20.5997435,26.6473081 C20.1238304,26.5907864 19.8135261,27.8495255 19.6982217,28.4944386 C19.5823522,29.1387864 19.597613,30.8593081 19.9638739,31.7370907 C20.2594826,32.4464386 20.7043087,34.3478299 20.9151348,32.0688733 C20.9688304,31.4833081 20.6664391,31.3623516 20.5471783,30.6411342 C20.4290478,29.9193516 20.7817435,29.4541777 20.9620478,29.2523951 C21.6482217,28.4842646 21.0558739,26.7010038 20.5997435,26.6473081" id="Fill-12" fill="#F4A56E"></path>
                                        <path d="M44.2786783,25.8166042 C45.341287,25.8199994 45.9635913,28.2170864 45.3525913,30.5259994 C44.7415913,32.8354777 44.4024609,34.9115212 43.3398522,34.908134 C42.2766783,34.9053038 42.7531565,33.4074777 42.7605043,30.706869 C42.767287,28.0056951 43.2155043,25.8132168 44.2786783,25.8166042" id="Fill-14" fill="#FFCCA9"></path>
                                        <path d="M43.941413,26.6740994 C44.4173261,26.6204038 44.721413,27.8814038 44.8327609,28.526882 C44.9452391,29.1712299 44.9220652,30.8906212 44.5507174,31.7672733 C44.2528478,32.4754907 43.7978478,34.3740559 43.5983261,32.0928386 C43.5474565,31.5078386 43.850413,31.3885777 43.9730652,30.6673603 C44.094587,29.9467081 43.743587,29.4798386 43.5655435,29.2774907 C42.8833261,28.5042733 43.4852826,26.724969 43.941413,26.6740994" id="Fill-16" fill="#F4A56E"></path>
                                        <path d="M32.216487,11.8167386 C44.3375739,11.8184342 43.2885304,19.0260864 43.2619652,28.8919559 C43.2342696,38.7578255 36.4980087,45.326782 32.0090522,44.928869 C27.9564435,44.7881299 21.192487,39.060782 21.2189742,29.1954777 C21.2399652,21.653782 21.9826609,15.0299994 27.2199652,12.5317386 C28.8336609,11.7619125 29.3598783,11.8167386 32.2153565,11.8167386 L32.216487,11.8167386 Z" id="Fill-18" fill="#FFCCA9"></path>
                                        <path d="M29.6161478,12.3179168 C42.7399304,12.2212646 43.8341913,-0.0467788396 31.6351043,0.00013420388 C25.4861043,0.00804724736 17.5691043,7.78882986 29.6161478,12.3179168" id="Fill-20" fill="#290C0E"></path>
                                        <g id="Group-24" stroke-width="1" fill="none" transform="translate(0.000000, 52.292917)">
                                            <path d="M62.0018043,12.1767609 C61.4642826,9.34671739 58.293413,6.3278913 55.3260217,5.14376087 C51.3887174,3.23276087 48.553587,2.57315217 44.9469348,0.481282609 C40.5840217,18.4998478 20.9619348,13.1896304 20.1830652,0.568326087 C15.0045435,2.46406522 14.2398043,3.04002174 8.89002174,5.11493478 C8.89058696,5.12002174 3.14458696,6.98297826 1.69197826,12.712587 L0.423630435,17.9261522 C8.49832609,25.3921087 19.2956739,29.9568043 31.1601522,29.9568043 C43.5231522,29.9568043 54.7268913,25.0009783 62.8999348,16.9703696 L62.0018043,12.1767609 Z" id="Fill-22" fill="#FFC166"></path>
                                        </g>
                                        <path d="M21.7770913,28.0628386 C23.2709609,22.1444472 33.078613,22.4146212 37.2951348,15.6817516 C43.0445261,21.5396646 41.9140913,22.2964907 42.6505696,28.1555342 C43.8358304,26.2891864 44.024613,22.7113603 43.9443522,21.3593603 C43.7397435,14.842969 38.1265696,8.79118638 32.0928739,9.54179507 C23.4880043,11.2510125 21.9856565,14.3325777 19.3031348,24.7003603 C20.9287,25.7516646 21.0988304,26.2247516 21.7770913,28.0628386" id="Fill-25" fill="#290C0E"></path>
                                    </g>
                                </g>
                            </g>
                        </g>
                        <text id="Driver-License" font-family="HelveticaNeue-Bold, Helvetica Neue" font-size="10" font-weight="bold" fill="#151010">
                            <tspan x="8" y="16">DRIVER LICENSE</tspan>
                        </text>
                        <g id="Group" transform="translate(61.000000, 22.000000)" fill="#151010" font-family="HelveticaNeue, Helvetica Neue" font-size="6" font-weight="normal">
                            <text id="A-012-345-678-90">
                                <tspan x="0" y="6">A 012 345 678 90</tspan>
                            </text>
                            <text id="DOB-DD-MM-YYYY">
                                <tspan x="0" y="15">DOB DD-MM-YYYY</tspan>
                            </text>
                            <text id="ISS-DD-MM-YYYY">
                                <tspan x="61" y="6">ISS DD-MM-YYYY</tspan>
                            </text>
                            <text id="EXP-DD-MM-YYYY">
                                <tspan x="61" y="15">EXP DD-MM-YYYY</tspan>
                            </text>
                        </g>
                        <g id="Group-3" transform="translate(61.000000, 46.000000)" fill="#151010">
                            <text id="123-NORTH-STATE-ST." font-family="HelveticaNeue, Helvetica Neue" font-size="6" font-weight="normal">
                                <tspan x="0" y="17">123 NORTH STATE ST.</tspan>
                                <tspan x="0" y="24">LANSING, MI 0000-0000</tspan>
                            </text>
                            <text id="JANE-DOE" font-family="HelveticaNeue-Bold, Helvetica Neue" font-size="8" font-weight="bold">
                                <tspan x="0" y="8">JANE DOE</tspan>
                            </text>
                        </g>
                        <g id="Group-2" transform="translate(61.000000, 81.000000)" fill="#151010" font-family="HelveticaNeue, Helvetica Neue" font-size="6" font-weight="normal">
                            <text id="SEX-F-LIC-TYPE">
                                <tspan x="0" y="6">SEX F</tspan>
                                <tspan x="0" y="13">LIC TYPE</tspan>
                            </text>
                            <text id="HGT-END">
                                <tspan x="44" y="6">HGT</tspan>
                                <tspan x="44" y="13">END</tspan>
                            </text>
                            <text id="EYES">
                                <tspan x="80" y="6">EYES</tspan>
                            </text>
                        </g>
                        <text id="AA-0123456789" font-family="HelveticaNeue, Helvetica Neue" font-size="6" font-weight="normal" fill="#151010">
                            <tspan x="97" y="107">AA 0123456789</tspan>
                        </text>
                        <path d="M17.3900779,106.446678 C18.0956625,105.279256 19.3400573,102.726323 19.7634081,101.725675 C20.0841284,100.968776 20.0199843,100.404308 19.8532098,100.122074 C19.7634081,99.9681282 19.6479488,99.9552994 19.5453183,100.109245 C19.1347963,100.737857 18.0315185,102.931584 17.3387626,104.355582 L17.031973,104.987988 C16.2558599,106.566887 15.4068944,108.057071 14.3881358,107.819361 C13.9904427,107.729559 13.490119,107.152263 14.1187308,105.330572 C14.1957037,105.112482 14.105902,105.035509 13.9262986,105.073995 C13.5927495,105.150968 13.2207139,105.510175 13.079597,106.061814 C12.7845343,107.165092 13.3361733,108.05028 14.2983342,108.217054 C15.3374679,108.396658 16.4022593,108.088766 17.3900779,106.446678 Z M22.2008824,108.242712 C22.906467,108.281198 23.7146822,107.575614 24.0482313,106.870029 C24.2150059,106.510822 24.2150059,106.190102 24.1636906,106.074643 C24.1123754,105.959183 24.0225737,105.972012 23.9584296,106.087472 C23.5094212,106.97266 22.8038365,107.845019 22.2778552,107.870676 C21.8416756,107.896334 21.8545044,107.344695 22.1752247,106.626282 C22.4831162,105.946355 23.1245568,104.984194 23.4067907,104.406897 C23.7146822,103.765457 23.6120517,103.213818 23.4196195,102.982899 C23.3298178,102.86744 23.2271873,102.893097 23.111728,103.059872 C22.9706111,103.265133 22.8166653,103.534538 22.6498908,103.842429 C22.6755484,103.342106 22.4189722,102.918755 21.8673333,102.918755 C21.2258927,102.918755 20.2124165,103.496051 19.1732827,105.009851 C18.1084913,106.562138 18.3522388,108.191397 19.5453183,108.191397 C20.1611013,108.191397 20.7383978,107.716731 21.1489198,107.190749 C21.1489198,107.793704 21.5081265,108.204226 22.2008824,108.242712 Z M19.6864352,107.768046 C19.1861115,107.755217 19.3528861,106.626282 20.0328131,105.523004 C20.7383978,104.38124 21.6749011,103.547367 22.0854231,103.585853 C22.4574586,103.62434 22.3419993,104.419726 21.5337841,105.830895 C20.8795147,106.959831 20.2124165,107.780875 19.6864352,107.768046 Z M26.9988581,108.242712 C27.7429292,108.242712 28.5511443,107.588443 28.8975223,106.870029 C29.0771256,106.497994 29.1027832,106.202931 29.0129816,106.061814 C28.9488375,105.959183 28.8590358,105.959183 28.7948918,106.074643 C28.3073969,106.97266 27.6787851,107.819361 27.1528038,107.845019 C26.6909666,107.870676 26.6139937,107.267722 26.9475428,106.523651 C27.2426055,105.856553 27.8712173,104.907221 28.1406223,104.342753 C28.4613426,103.675655 28.0636495,103.047043 27.6402987,102.982899 C27.2169479,102.918755 26.3445887,103.62434 25.7672921,104.240123 C25.9084091,103.778285 25.9212379,103.342106 25.7288057,103.021385 C25.6518328,102.893097 25.5492023,102.880269 25.4594006,103.021385 C24.6511855,104.214465 23.6633669,105.99767 23.4067907,106.805885 C23.2015297,107.447326 23.2785026,107.870676 23.5350788,108.127253 C23.6505381,108.242712 23.727511,108.191397 23.7788263,108.075937 C24.3304652,106.870029 24.8949329,105.638463 25.6518328,104.817419 C26.4728768,103.919402 27.2169479,103.560196 27.345236,103.611511 C27.5761546,103.714141 26.4472192,105.073995 26.0238684,106.331219 C25.6518328,107.447326 25.9084091,108.242712 26.9988581,108.242712 Z M30.4369797,108.217054 C31.4247982,108.204226 32.4126168,107.6141 32.9514269,106.831543 C33.1823455,106.497994 33.2208319,106.138787 33.1695167,106.036156 C33.1182014,105.920697 33.0155709,105.920697 32.9514269,106.023327 C32.3997879,106.870029 31.4632847,107.896334 30.3984933,107.845019 C29.7185662,107.806532 29.4106747,106.998317 29.8211967,105.818066 C30.7192136,106.549309 31.578744,106.21576 32.2073558,105.446031 C32.7461659,104.791762 32.8487964,104.009204 32.6178777,103.701312 C32.4126168,103.419079 32.1816981,103.226646 31.8609778,103.034214 C31.2195372,102.662179 29.9109984,103.329277 29.0771256,104.984194 C28.2432528,106.63911 28.8077206,108.242712 30.4369797,108.217054 Z M29.936656,105.535833 C29.9623137,105.471689 30.0008001,105.394716 30.0392865,105.317743 C30.6422407,104.099006 31.7070321,103.329277 31.9764371,103.547367 C32.1560405,103.688484 31.8738066,104.355582 31.4632847,104.894392 C31.0912491,105.381887 30.5652678,105.933526 29.936656,105.535833 Z M37.313223,108.114424 C40.7513446,106.97266 43.0348731,103.226646 41.8546224,101.174037 C41.3799564,100.340164 40.7385158,99.9168129 39.9174718,100.045101 C39.083599,100.173389 38.4421584,100.686542 37.5569704,100.802001 C37.3901958,100.827659 37.377367,100.904631 37.4286823,101.045748 C37.5056551,101.238181 37.7622314,101.558901 38.262555,101.584559 C37.377367,102.905926 36.3125756,104.907221 35.9148824,106.113129 C35.6454774,106.947002 35.7096215,107.139434 35.9533689,107.472983 C36.1329722,107.729559 36.3382332,107.896334 36.492179,108.024622 C36.7102688,108.204226 36.9411874,108.242712 37.313223,108.114424 Z M36.556323,106.831543 C36.9283586,105.651292 37.9674924,103.94506 38.608933,102.803296 C38.9296533,102.238828 39.0066261,101.776991 38.9424821,101.45627 C39.8404989,101.161208 40.7770022,100.481281 41.2260106,101.199694 C41.9829105,102.405602 40.3664802,106.074643 36.8642145,107.408839 C36.4793502,107.549956 36.3895485,107.370353 36.556323,106.831543 Z M43.7789442,108.127253 C44.7282763,107.806532 45.5364915,106.510822 45.8058965,105.420373 C45.9341846,105.407544 46.0624728,105.356229 46.1522745,105.253599 C46.2035897,105.189455 46.2035897,105.125311 46.113788,105.125311 C46.0111575,105.125311 45.9341846,105.150968 45.8572118,105.150968 L45.8828694,104.855906 L45.8828694,104.855906 C45.9598423,103.932231 45.5749779,103.842429 45.2799152,103.444736 C45.023339,103.098358 44.8052492,102.982899 44.407556,103.008557 C43.6378273,103.059872 42.8552698,103.803943 42.3677749,104.676302 C41.7904784,105.702607 41.5980462,106.818714 42.1625139,107.562785 C42.6756664,108.229883 43.317107,108.281198 43.7789442,108.127253 Z M42.7398104,107.6141 C42.4062613,107.331866 42.5986935,106.151616 43.1375036,105.176626 C43.4069087,104.689131 43.7789442,104.26578 44.1253221,103.970718 C44.138151,104.445384 44.4460424,104.894392 44.7154475,105.099653 C44.7924204,105.163797 44.8693932,105.215112 44.9591949,105.253599 C44.8565644,105.56149 44.7026187,105.920697 44.5101865,106.279904 C43.8815747,107.460154 43.0990172,107.909163 42.7398104,107.6141 Z M47.82002,108.217054 C48.8078385,108.204226 49.7956571,107.6141 50.3344672,106.831543 C50.5653858,106.497994 50.6038722,106.138787 50.552557,106.036156 C50.5012417,105.920697 50.3986112,105.920697 50.3344672,106.023327 C49.7828283,106.870029 48.846325,107.896334 47.7815336,107.845019 C47.1016065,107.806532 46.7937151,106.998317 47.204237,105.818066 C48.1022539,106.549309 48.9617843,106.21576 49.5903961,105.446031 C50.1292062,104.791762 50.2318367,104.009204 50.0009181,103.701312 C49.7956571,103.419079 49.5647385,103.226646 49.2440182,103.034214 C48.6025776,102.662179 47.2940387,103.329277 46.4601659,104.984194 C45.6262932,106.63911 46.1907609,108.242712 47.82002,108.217054 Z M47.3196963,105.535833 C47.345354,105.471689 47.3838404,105.394716 47.4223268,105.317743 C48.025281,104.099006 49.0900724,103.329277 49.3594775,103.547367 C49.5390808,103.688484 49.256847,104.355582 48.846325,104.894392 C48.4742894,105.381887 47.9483081,105.933526 47.3196963,105.535833 Z" id="JaneDoe" fill="#151010" fill-rule="nonzero"></path>
                    </g>
                </g>
                <text id="minimum-background" opacity="0.2" font-family="HelveticaNeue-Bold, Helvetica Neue" font-size="12" font-weight="bold" fill="#151010">
                    <tspan x="56.07" y="190">MINIMUM BACKGROUND</tspan>
                </text>
                <path d="M25,-7.65404249e-16 L25,5 L5,5 L5,25 L0,25 L0,0 L25,-7.65404249e-16 Z" id="Combined-Shape" fill="#151010"></path>
                <path d="M25,175 L25,180 L5,180 L5,200 L0,200 L0,175 L25,175 Z" id="Combined-Shape-Copy" fill="#151010" transform="translate(12.500000, 187.500000) scale(1, -1) translate(-12.500000, -187.500000) "></path>
                <path d="M260,-7.65404249e-16 L260,5 L240,5 L240,25 L235,25 L235,0 L260,-7.65404249e-16 Z" id="Combined-Shape" fill="#151010" transform="translate(247.500000, 12.500000) scale(-1, 1) translate(-247.500000, -12.500000) "></path>
                <path d="M260,175 L260,180 L240,180 L240,200 L235,200 L235,175 L260,175 Z" id="Combined-Shape-Copy-2" fill="#151010" transform="translate(247.500000, 187.500000) scale(-1, -1) translate(-247.500000, -187.500000) "></path>
            </g>
        </g>
    </g>
</svg>