<svg xmlns="http://www.w3.org/2000/svg" width="77.999" height="75" viewBox="0 0 77.999 75">
  <path id="Shape_1" data-name="Shape 1" d="M1328.8,4633.872a15.17,15.17,0,0,1,14.29-15.1,24.871,24.871,0,0,0-7.16-5.59,16.006,16.006,0,0,1-22.826,0,24.789,24.789,0,0,0-9.412,8.552,24.489,24.489,0,0,0-3.924,12.8,37.483,37.483,0,0,0,24.749,9.294c.583,0,1.173-.014,1.75-.041a1.274,1.274,0,1,1,.119,2.545c-.618.028-1.247.042-1.868.042a40.036,40.036,0,0,1-26.893-10.333,1.268,1.268,0,0,1-.419-.942v-.023a27.045,27.045,0,0,1,4.337-14.72,27.34,27.34,0,0,1,11.246-9.86,1.283,1.283,0,0,1,1.453.249,13.624,13.624,0,0,0,20.55,0,1.283,1.283,0,0,1,1.453-.249,27.424,27.424,0,0,1,10.277,8.464,15.133,15.133,0,1,1-17.721,14.916Zm2.556,0a12.628,12.628,0,1,0,12.628-12.58A12.618,12.618,0,0,0,1331.358,4633.872Zm-2.619,10.852a1.289,1.289,0,0,1,2.182-.9,1.2,1.2,0,0,1,.271.4l.005.013a1.282,1.282,0,0,1-.417,1.509,1.237,1.237,0,0,1-.741.244A1.286,1.286,0,0,1,1328.739,4644.724Zm13.969-1.273v-8.3h-8.336a1.274,1.274,0,1,1,0-2.547h8.336v-8.3a1.278,1.278,0,0,1,2.556,0v8.3h8.336a1.274,1.274,0,1,1,0,2.547h-8.336v8.3a1.278,1.278,0,0,1-2.556,0Zm-47.992-10.893a35.007,35.007,0,0,1-13.126-7.455,1.269,1.269,0,0,1-.42-.943v-.019a23.556,23.556,0,0,1,3.778-12.822,23.812,23.812,0,0,1,9.8-8.59,1.283,1.283,0,0,1,1.453.249,12.466,12.466,0,0,0,8.765,3.994,11.022,11.022,0,0,0,4.947-1.2,1.274,1.274,0,1,1,1.145,2.277,13.554,13.554,0,0,1-6.092,1.471,14.678,14.678,0,0,1-9.9-4.1,21.26,21.26,0,0,0-7.967,7.279,21.006,21.006,0,0,0-3.364,10.9,32.475,32.475,0,0,0,11.734,6.528,1.274,1.274,0,0,1-.751,2.434Zm18.573-26.141a23.823,23.823,0,0,1-4.45-13.084,15.678,15.678,0,0,1,31.356,0,23.814,23.814,0,0,1-4.45,13.084c-3.157,4.481-7.144,6.95-11.228,6.95S1316.447,4610.9,1313.29,4606.417Zm-1.894-13.084a21.5,21.5,0,0,0,3.986,11.62c2.626,3.729,5.956,5.867,9.136,5.867s6.51-2.138,9.137-5.867a21.5,21.5,0,0,0,3.986-11.62,13.122,13.122,0,0,0-26.244,0Zm-16.32,5.7a20.735,20.735,0,0,1-3.869-11.386,13.707,13.707,0,0,1,23.205-9.823,1.276,1.276,0,1,1-1.775,1.833,11.149,11.149,0,0,0-18.874,7.99,18.366,18.366,0,0,0,3.406,9.922c2.232,3.169,5.051,4.987,7.736,4.987a7,7,0,0,0,3.115-.77,1.274,1.274,0,1,1,1.138,2.281,9.53,9.53,0,0,1-4.253,1.036C1301.324,4605.1,1297.833,4602.946,1295.076,4599.033Z" transform="translate(-1281.17 -4573.999)"/>
</svg>
